KABKOTNO,KABUPATEN,2005,2006,2007,2008,2009,2010,2011,2012,2013,2014
01,Kab Pandeglang,13,15,9,17,20,13,12,12,11,13
02,Kab Lebak,19,10,13,13,11,17,16,17,18,20
89,Kab Tangerang,703,866,882,782,750,704,689,682,675,782
03,Kab Tangerang,703,866,882,782,750,704,689,682,675,782
04,Kab Serang,191,148,117,162,144,143,144,144,152,148
71,Kota Tangerang,607,719,687,670,610,583,563,555,561,559
72,Kota Cilegon,72,51,72,69,72,76,77,77,77,81
73,Kota Serang,0,0,6,14,15,23,23,21,19,22
74,Kota Tangerang Selatan,0,0,0,77,73,61,59,62,57,57