KABKOTNO,KABUPATEN,2005,2006,2007,2008,2009,2010,2011,2012,2013,2014
01,Kab Pandeglang,870,1218,552,1642,1170,1241,729,736,779,799
02,Kab Lebak,3086,1194,953,1289,1335,2693,2246,1624,1431,1733
03,Kab Tangerang,187980,205378,210561,180918,177941,176755,172909,169343,170145,181947
04,Kab Serang,72201,50781,80889,65889,63829,64267,70226,71169,78872,75465
71,Kota Tangerang,184921,220440,171658,183803,180319,193551,178934,176107,180506,180253
72,Kota Cilegon,21635,26506,21075,21946,20806,19370,19696,19503,19898,19724
73,Kota Serang,0,0,330,713,765,951,968,940,796,934
74,Kota Tangerang Selatan,0,0,0,27924,27540,28274,27653,28121,26573,26927